…
homicide_summary <- homicide_data %>%
  mutate(unsolved = ifelse(disposition %in% c("Closed without arrest", "Open/No arrest"), 1, 0)
         ) %>%
  group_by(city_state) %>%
  summarise(
    total_homicide = n(),
    unsolved_homicides = sum(unsolved),
    .groups = "drop"
  )

print(homicide_summary)
```

    ## # A tibble: 51 × 3
    ##    city_state      total_homicide unsolved_homicides
    ##    <chr>                    <int>              <dbl>
    ##  1 Albuquerque, NM            378                146
    ##  2 Atlanta, GA                973                373
    ##  3 Baltimore, MD             2827               1825
    ##  4 Baton Rouge, LA            424                196
    ##  5 Birmingham, AL             800                347
    ##  6 Boston, MA                 614                310
    ##  7 Buffalo, NY                521                319
    ##  8 Charlotte, NC              687                206
    ##  9 Chicago, IL               5535               4073
    ## 10 Cincinnati, OH             694                309
    ## # ℹ 41 more rows
…
